EESchema Schematic File Version 4
LIBS:stereo-tubescreamer-cache
EELAYER 26 0
EELAYER END
$Descr A4 11693 8268
encoding utf-8
Sheet 1 1
Title ""
Date ""
Rev ""
Comp ""
Comment1 ""
Comment2 ""
Comment3 ""
Comment4 ""
$EndDescr
$Comp
L Connector_Generic:Conn_01x03 J16
U 1 1 5C326691
P 4800 6600
F 0 "J16" H 4720 6275 50  0000 C CNN
F 1 "DIST_BIAS" H 4720 6366 50  0000 C CNN
F 2 "Connector_PinHeader_2.54mm:PinHeader_1x03_P2.54mm_Vertical" H 4800 6600 50  0001 C CNN
F 3 "~" H 4800 6600 50  0001 C CNN
	1    4800 6600
	-1   0    0    1   
$EndComp
Text Label 5400 6600 2    50   ~ 0
DIST_BIAS
Wire Wire Line
	5000 6600 5400 6600
Wire Wire Line
	5000 6500 5450 6500
Wire Wire Line
	5450 6500 5450 6900
$Comp
L power:GND #PWR034
U 1 1 5C327307
P 5450 6900
F 0 "#PWR034" H 5450 6650 50  0001 C CNN
F 1 "GND" H 5455 6727 50  0000 C CNN
F 2 "" H 5450 6900 50  0001 C CNN
F 3 "" H 5450 6900 50  0001 C CNN
	1    5450 6900
	1    0    0    -1  
$EndComp
Wire Wire Line
	5000 6700 5050 6700
Wire Wire Line
	5050 6700 5050 6900
$Comp
L power:GNDREF #PWR033
U 1 1 5C3276FE
P 5050 6900
F 0 "#PWR033" H 5050 6650 50  0001 C CNN
F 1 "GNDREF" H 5055 6727 50  0000 C CNN
F 2 "" H 5050 6900 50  0001 C CNN
F 3 "" H 5050 6900 50  0001 C CNN
	1    5050 6900
	1    0    0    -1  
$EndComp
Text Label 7550 5150 2    50   ~ 0
JI1
Text Label 8250 5150 0    50   ~ 0
IN1
Text Label 7550 5250 2    50   ~ 0
DIST_O1
Text Label 8250 5250 0    50   ~ 0
POST_EQ_I1
Text Label 7550 5350 2    50   ~ 0
POST_EQ_O1
Text Label 8250 5350 0    50   ~ 0
LEVEL_I1
Text Label 7550 5450 2    50   ~ 0
OUT1
Text Label 8250 5450 0    50   ~ 0
JO1
Wire Wire Line
	7550 5450 7650 5450
Wire Wire Line
	7650 5350 7550 5350
Wire Wire Line
	7550 5250 7650 5250
Wire Wire Line
	7650 5150 7550 5150
Wire Wire Line
	8150 5150 8250 5150
Wire Wire Line
	8250 5250 8150 5250
Wire Wire Line
	8150 5350 8250 5350
Wire Wire Line
	8250 5450 8150 5450
$Comp
L Connector_Generic:Conn_02x04_Odd_Even J4
U 1 1 5C433AB2
P 7850 5250
F 0 "J4" H 7900 5567 50  0000 C CNN
F 1 "ROUTING_1" H 7900 5476 50  0000 C CNN
F 2 "Connector_PinHeader_2.54mm:PinHeader_2x04_P2.54mm_Vertical" H 7850 5250 50  0001 C CNN
F 3 "~" H 7850 5250 50  0001 C CNN
	1    7850 5250
	1    0    0    -1  
$EndComp
Text Label 4000 5100 1    50   ~ 0
TONE_POT_B1
Text Label 3900 5100 1    50   ~ 0
TONE_POT_W1
Text Label 3800 5100 1    50   ~ 0
TONE_POT_T1
Text Label 4900 5100 1    50   ~ 0
DIST_POT_I1
Text Label 4800 5100 1    50   ~ 0
DIST_POT_O1
Text Label 4500 5100 1    50   ~ 0
LEVEL_POT_B1
Text Label 4400 5100 1    50   ~ 0
LEVEL_POT_W1
Text Label 4300 5100 1    50   ~ 0
LEVEL_POT_T1
$Comp
L Connector_Generic:Conn_01x03 J2
U 1 1 5C450636
P 4400 5400
F 0 "J2" V 4273 5580 50  0000 L CNN
F 1 "C1_LEVEL" V 4500 5200 50  0000 L CNN
F 2 "Connector_PinHeader_2.54mm:PinHeader_1x03_P2.54mm_Vertical" H 4400 5400 50  0001 C CNN
F 3 "~" H 4400 5400 50  0001 C CNN
	1    4400 5400
	0    1    1    0   
$EndComp
$Comp
L Connector_Generic:Conn_01x03 J1
U 1 1 5C450782
P 3900 5400
F 0 "J1" V 3773 5580 50  0000 L CNN
F 1 "C1_TONE" V 4000 5150 50  0000 L CNN
F 2 "Connector_PinHeader_2.54mm:PinHeader_1x03_P2.54mm_Vertical" H 3900 5400 50  0001 C CNN
F 3 "~" H 3900 5400 50  0001 C CNN
	1    3900 5400
	0    1    1    0   
$EndComp
$Comp
L Connector_Generic:Conn_01x02 J3
U 1 1 5C454B57
P 4900 5400
F 0 "J3" V 4773 5480 50  0000 L CNN
F 1 "C1_DIST" V 5000 5200 50  0000 L CNN
F 2 "Connector_PinHeader_2.54mm:PinHeader_1x02_P2.54mm_Vertical" H 4900 5400 50  0001 C CNN
F 3 "~" H 4900 5400 50  0001 C CNN
	1    4900 5400
	0    1    1    0   
$EndComp
Wire Wire Line
	3800 5200 3800 5100
Wire Wire Line
	3900 5100 3900 5200
Wire Wire Line
	4000 5200 4000 5100
Wire Wire Line
	4300 5100 4300 5200
Wire Wire Line
	4400 5200 4400 5100
Wire Wire Line
	4500 5100 4500 5200
Wire Wire Line
	4800 5200 4800 5100
Wire Wire Line
	4900 5100 4900 5200
$Comp
L Connector:Jack-DC J15
U 1 1 5C4B8548
P 1200 6500
F 0 "J15" H 970 6458 50  0000 R CNN
F 1 "Jack-DC" H 970 6549 50  0000 R CNN
F 2 "" H 1250 6460 50  0001 C CNN
F 3 "~" H 1250 6460 50  0001 C CNN
	1    1200 6500
	1    0    0    1   
$EndComp
Wire Wire Line
	2100 6400 2100 6300
$Comp
L power:VDD #PWR032
U 1 1 5C5D4F24
P 2100 6300
F 0 "#PWR032" H 2100 6150 50  0001 C CNN
F 1 "VDD" H 2117 6473 50  0000 C CNN
F 2 "" H 2100 6300 50  0001 C CNN
F 3 "" H 2100 6300 50  0001 C CNN
	1    2100 6300
	1    0    0    -1  
$EndComp
$Comp
L power:GND #PWR036
U 1 1 5C5E4E5C
P 2500 7400
F 0 "#PWR036" H 2500 7150 50  0001 C CNN
F 1 "GND" H 2505 7227 50  0000 C CNN
F 2 "" H 2500 7400 50  0001 C CNN
F 3 "" H 2500 7400 50  0001 C CNN
	1    2500 7400
	1    0    0    -1  
$EndComp
$Comp
L Device:R R33
U 1 1 5C5E4FC7
P 2500 6650
F 0 "R33" H 2570 6696 50  0000 L CNN
F 1 "10k" H 2570 6605 50  0000 L CNN
F 2 "Resistor_THT:R_Axial_DIN0207_L6.3mm_D2.5mm_P10.16mm_Horizontal" V 2430 6650 50  0001 C CNN
F 3 "~" H 2500 6650 50  0001 C CNN
	1    2500 6650
	1    0    0    -1  
$EndComp
$Comp
L Device:R R34
U 1 1 5C5E5110
P 2500 7050
F 0 "R34" H 2570 7096 50  0000 L CNN
F 1 "10k" H 2570 7005 50  0000 L CNN
F 2 "Resistor_THT:R_Axial_DIN0207_L6.3mm_D2.5mm_P10.16mm_Horizontal" V 2430 7050 50  0001 C CNN
F 3 "~" H 2500 7050 50  0001 C CNN
	1    2500 7050
	1    0    0    -1  
$EndComp
Wire Wire Line
	2500 6900 2500 6850
Wire Wire Line
	2500 6400 2500 6500
Connection ~ 2100 6400
Wire Wire Line
	2500 7400 2500 7300
Connection ~ 2500 7300
Wire Wire Line
	2500 7300 2500 7200
Wire Wire Line
	2500 6850 2750 6850
Connection ~ 2500 6850
Wire Wire Line
	2500 6850 2500 6800
$Comp
L power:GNDREF #PWR035
U 1 1 5C6675DE
P 2750 7050
F 0 "#PWR035" H 2750 6800 50  0001 C CNN
F 1 "GNDREF" H 2755 6877 50  0000 C CNN
F 2 "" H 2750 7050 50  0001 C CNN
F 3 "" H 2750 7050 50  0001 C CNN
	1    2750 7050
	1    0    0    -1  
$EndComp
$Comp
L Device:CP C19
U 1 1 5C66776A
P 2950 7050
F 0 "C19" H 3068 7096 50  0000 L CNN
F 1 "CP" H 3068 7005 50  0000 L CNN
F 2 "" H 2988 6900 50  0001 C CNN
F 3 "~" H 2950 7050 50  0001 C CNN
	1    2950 7050
	1    0    0    -1  
$EndComp
Wire Wire Line
	2500 7300 2950 7300
Wire Wire Line
	2750 6850 2950 6850
Connection ~ 2750 6850
Wire Wire Line
	2750 6850 2750 7050
$Comp
L Device:D D9
U 1 1 5C741EDF
P 2300 6850
F 0 "D9" V 2254 6929 50  0000 L CNN
F 1 "D" V 2345 6929 50  0000 L CNN
F 2 "Diode_THT:D_A-405_P7.62mm_Horizontal" H 2300 6850 50  0001 C CNN
F 3 "~" H 2300 6850 50  0001 C CNN
	1    2300 6850
	0    1    1    0   
$EndComp
Wire Wire Line
	2300 7300 2300 7000
Wire Wire Line
	2300 6400 2300 6700
Wire Wire Line
	2100 6600 2100 7300
Connection ~ 2300 6400
Wire Wire Line
	2300 6400 2500 6400
Wire Wire Line
	2300 7300 2500 7300
Wire Wire Line
	2100 6400 2300 6400
Wire Wire Line
	2100 7300 2300 7300
Connection ~ 2300 7300
Wire Wire Line
	2950 7200 2950 7300
Wire Wire Line
	2950 6900 2950 6850
$Comp
L Connector_Generic:Conn_01x02 J14
U 1 1 5C83BE8C
P 4050 6400
F 0 "J14" H 4130 6392 50  0000 L CNN
F 1 "EXT_POW" H 4130 6301 50  0000 L CNN
F 2 "Connector_PinHeader_2.54mm:PinHeader_1x02_P2.54mm_Vertical" H 4050 6400 50  0001 C CNN
F 3 "~" H 4050 6400 50  0001 C CNN
	1    4050 6400
	1    0    0    -1  
$EndComp
$Comp
L Device:R R31
U 1 1 5C89F1FB
P 1750 6400
F 0 "R31" V 1543 6400 50  0000 C CNN
F 1 "R" V 1634 6400 50  0000 C CNN
F 2 "Resistor_THT:R_Axial_DIN0207_L6.3mm_D2.5mm_P10.16mm_Horizontal" V 1680 6400 50  0001 C CNN
F 3 "~" H 1750 6400 50  0001 C CNN
	1    1750 6400
	0    1    1    0   
$EndComp
Wire Wire Line
	1500 6400 1600 6400
Wire Wire Line
	1900 6400 2100 6400
Wire Wire Line
	1500 6600 2100 6600
$Comp
L Device:R R32
U 1 1 5C8DB6BB
P 3600 6400
F 0 "R32" V 3393 6400 50  0000 C CNN
F 1 "R" V 3484 6400 50  0000 C CNN
F 2 "Resistor_THT:R_Axial_DIN0207_L6.3mm_D2.5mm_P10.16mm_Horizontal" V 3530 6400 50  0001 C CNN
F 3 "~" H 3600 6400 50  0001 C CNN
	1    3600 6400
	0    1    1    0   
$EndComp
Wire Wire Line
	3750 6500 3750 7300
Wire Wire Line
	3750 6500 3850 6500
Wire Wire Line
	3850 6400 3750 6400
$Comp
L Connector_Generic:Conn_01x03 J13
U 1 1 5C92C1BC
P 6150 5350
F 0 "J13" H 6229 5392 50  0000 L CNN
F 1 "POWER_THRU" H 6229 5301 50  0000 L CNN
F 2 "Connector_PinHeader_2.54mm:PinHeader_1x03_P2.54mm_Vertical" H 6150 5350 50  0001 C CNN
F 3 "~" H 6150 5350 50  0001 C CNN
	1    6150 5350
	1    0    0    -1  
$EndComp
$Comp
L power:GND #PWR031
U 1 1 5C92C365
P 5850 5550
F 0 "#PWR031" H 5850 5300 50  0001 C CNN
F 1 "GND" H 5855 5377 50  0000 C CNN
F 2 "" H 5850 5550 50  0001 C CNN
F 3 "" H 5850 5550 50  0001 C CNN
	1    5850 5550
	1    0    0    -1  
$EndComp
$Comp
L power:GNDREF #PWR030
U 1 1 5C92C507
P 5600 5550
F 0 "#PWR030" H 5600 5300 50  0001 C CNN
F 1 "GNDREF" H 5605 5377 50  0000 C CNN
F 2 "" H 5600 5550 50  0001 C CNN
F 3 "" H 5600 5550 50  0001 C CNN
	1    5600 5550
	1    0    0    -1  
$EndComp
$Comp
L power:VCC #PWR029
U 1 1 5C92C66A
P 5850 5150
F 0 "#PWR029" H 5850 5000 50  0001 C CNN
F 1 "VCC" H 5867 5323 50  0000 C CNN
F 2 "" H 5850 5150 50  0001 C CNN
F 3 "" H 5850 5150 50  0001 C CNN
	1    5850 5150
	1    0    0    -1  
$EndComp
Wire Wire Line
	5600 5550 5600 5350
Wire Wire Line
	5600 5350 5950 5350
Wire Wire Line
	5850 5550 5850 5450
Wire Wire Line
	5950 5450 5850 5450
Wire Wire Line
	5850 5150 5850 5250
Wire Wire Line
	5850 5250 5950 5250
$Comp
L Amplifier_Operational:RC4558 U3
U 2 1 5CB8AA58
P 9900 4850
F 0 "U3" H 9900 4483 50  0000 C CNN
F 1 "RC4558" H 9900 4574 50  0000 C CNN
F 2 "Package_SO:SOIC-8_3.9x4.9mm_P1.27mm" H 9900 4850 50  0001 C CNN
F 3 "http://www.ti.com/lit/ds/symlink/rc4558.pdf" H 9900 4850 50  0001 C CNN
	2    9900 4850
	1    0    0    1   
$EndComp
Wire Wire Line
	9250 4950 9600 4950
Text Label 9250 4750 0    50   ~ 0
OA1B_P6
Text Label 9250 4950 0    50   ~ 0
OA1B_P5
Text Label 10550 4850 2    50   ~ 0
OA1B_P7
Wire Wire Line
	9250 4750 9600 4750
Wire Wire Line
	10200 4850 10550 4850
$Comp
L Amplifier_Operational:RC4558 U3
U 1 1 5CBC771E
P 9900 5600
F 0 "U3" H 9900 5233 50  0000 C CNN
F 1 "RC4558" H 9900 5324 50  0000 C CNN
F 2 "Package_SO:SOIC-8_3.9x4.9mm_P1.27mm" H 9900 5600 50  0001 C CNN
F 3 "http://www.ti.com/lit/ds/symlink/rc4558.pdf" H 9900 5600 50  0001 C CNN
	1    9900 5600
	1    0    0    1   
$EndComp
Text Label 9250 5500 0    50   ~ 0
OA1A_P2
Text Label 9250 5700 0    50   ~ 0
OA1A_P3
Text Label 10550 5600 2    50   ~ 0
OA1A_P1
Wire Wire Line
	10200 5600 10550 5600
Wire Wire Line
	9250 5700 9600 5700
Wire Wire Line
	9250 5500 9600 5500
$Comp
L Amplifier_Operational:RC4558 U1
U 3 1 5CD001D1
P 6000 6850
F 0 "U1" H 5958 6896 50  0000 L CNN
F 1 "RC4558" H 5958 6805 50  0000 L CNN
F 2 "Package_DIP:DIP-8_W7.62mm_Socket" H 6000 6850 50  0001 C CNN
F 3 "http://www.ti.com/lit/ds/symlink/rc4558.pdf" H 6000 6850 50  0001 C CNN
	3    6000 6850
	1    0    0    -1  
$EndComp
Wire Wire Line
	5900 6450 5900 6550
$Comp
L power:VCC #PWR0101
U 1 1 5CD2A37E
P 5900 6450
F 0 "#PWR0101" H 5900 6300 50  0001 C CNN
F 1 "VCC" H 5917 6623 50  0000 C CNN
F 2 "" H 5900 6450 50  0001 C CNN
F 3 "" H 5900 6450 50  0001 C CNN
	1    5900 6450
	1    0    0    -1  
$EndComp
Wire Wire Line
	5900 7250 5900 7150
$Comp
L power:GND #PWR0102
U 1 1 5CD3F66A
P 5900 7250
F 0 "#PWR0102" H 5900 7000 50  0001 C CNN
F 1 "GND" H 5905 7077 50  0000 C CNN
F 2 "" H 5900 7250 50  0001 C CNN
F 3 "" H 5900 7250 50  0001 C CNN
	1    5900 7250
	1    0    0    -1  
$EndComp
$Comp
L Amplifier_Operational:RC4558 U3
U 3 1 5CD3F984
P 6500 6850
F 0 "U3" H 6458 6896 50  0000 L CNN
F 1 "RC4558" H 6458 6805 50  0000 L CNN
F 2 "Package_SO:SOIC-8_3.9x4.9mm_P1.27mm" H 6500 6850 50  0001 C CNN
F 3 "http://www.ti.com/lit/ds/symlink/rc4558.pdf" H 6500 6850 50  0001 C CNN
	3    6500 6850
	1    0    0    -1  
$EndComp
Wire Wire Line
	6400 6450 6400 6550
$Comp
L power:VCC #PWR0103
U 1 1 5CD3F98B
P 6400 6450
F 0 "#PWR0103" H 6400 6300 50  0001 C CNN
F 1 "VCC" H 6417 6623 50  0000 C CNN
F 2 "" H 6400 6450 50  0001 C CNN
F 3 "" H 6400 6450 50  0001 C CNN
	1    6400 6450
	1    0    0    -1  
$EndComp
Wire Wire Line
	6400 7250 6400 7150
$Comp
L power:GND #PWR0104
U 1 1 5CD3F992
P 6400 7250
F 0 "#PWR0104" H 6400 7000 50  0001 C CNN
F 1 "GND" H 6405 7077 50  0000 C CNN
F 2 "" H 6400 7250 50  0001 C CNN
F 3 "" H 6400 7250 50  0001 C CNN
	1    6400 7250
	1    0    0    -1  
$EndComp
$Comp
L Device:C C21
U 1 1 5CDACF2B
P 3350 7050
F 0 "C21" H 3465 7096 50  0000 L CNN
F 1 "100n" H 3465 7005 50  0000 L CNN
F 2 "" H 3388 6900 50  0001 C CNN
F 3 "~" H 3350 7050 50  0001 C CNN
	1    3350 7050
	1    0    0    -1  
$EndComp
Wire Wire Line
	3350 7300 3350 7200
Wire Wire Line
	3350 7300 3750 7300
Wire Wire Line
	3350 6900 3350 6400
Wire Wire Line
	3350 6400 3450 6400
$Comp
L Device:CP C9
U 1 1 5CE36266
P 5100 3250
F 0 "C9" H 5218 3296 50  0000 L CNN
F 1 "0.22uF" H 4800 3150 50  0000 L CNN
F 2 "" H 5138 3100 50  0001 C CNN
F 3 "~" H 5100 3250 50  0001 C CNN
	1    5100 3250
	1    0    0    -1  
$EndComp
Text Label 6450 2850 1    50   ~ 0
OA1B_P7
Text Label 5800 2950 2    50   ~ 0
OA1B_P5
Text Label 5800 2750 1    50   ~ 0
OA1B_P6
Text Label 4400 2950 1    50   ~ 0
OA1A_P1
Text Label 3750 3050 2    50   ~ 0
OA1A_P3
Text Label 3750 2850 1    50   ~ 0
OA1A_P2
Wire Wire Line
	4500 2950 4600 2950
Connection ~ 4500 2950
Wire Wire Line
	4350 2950 4500 2950
Wire Wire Line
	1900 1100 1800 1100
Wire Wire Line
	1800 1450 1900 1450
$Comp
L Device:D D2
U 1 1 5CA73548
P 2050 1100
F 0 "D2" H 2050 884 50  0000 C CNN
F 1 "D" H 2050 975 50  0000 C CNN
F 2 "Diode_THT:D_A-405_P7.62mm_Horizontal" H 2050 1100 50  0001 C CNN
F 3 "~" H 2050 1100 50  0001 C CNN
	1    2050 1100
	-1   0    0    1   
$EndComp
$Comp
L Device:D D4
U 1 1 5CA73542
P 2050 1450
F 0 "D4" H 2050 1666 50  0000 C CNN
F 1 "D" H 2050 1575 50  0000 C CNN
F 2 "Diode_THT:D_A-405_P7.62mm_Horizontal" H 2050 1450 50  0001 C CNN
F 3 "~" H 2050 1450 50  0001 C CNN
	1    2050 1450
	1    0    0    -1  
$EndComp
Wire Wire Line
	1500 1100 1400 1100
Wire Wire Line
	1400 1450 1500 1450
$Comp
L Device:D D1
U 1 1 5CA73534
P 1650 1100
F 0 "D1" H 1650 884 50  0000 C CNN
F 1 "D" H 1650 975 50  0000 C CNN
F 2 "Diode_THT:D_A-405_P7.62mm_Horizontal" H 1650 1100 50  0001 C CNN
F 3 "~" H 1650 1100 50  0001 C CNN
	1    1650 1100
	-1   0    0    1   
$EndComp
$Comp
L Device:D D3
U 1 1 5CA7352E
P 1650 1450
F 0 "D3" H 1650 1666 50  0000 C CNN
F 1 "D" H 1650 1575 50  0000 C CNN
F 2 "Diode_THT:D_A-405_P7.62mm_Horizontal" H 1650 1450 50  0001 C CNN
F 3 "~" H 1650 1450 50  0001 C CNN
	1    1650 1450
	1    0    0    -1  
$EndComp
Wire Wire Line
	1350 2650 1450 2650
$Comp
L power:GNDREF #PWR05
U 1 1 5C599C45
P 7500 3000
F 0 "#PWR05" H 7500 2750 50  0001 C CNN
F 1 "GNDREF" H 7505 2827 50  0000 C CNN
F 2 "" H 7500 3000 50  0001 C CNN
F 3 "" H 7500 3000 50  0001 C CNN
	1    7500 3000
	1    0    0    -1  
$EndComp
Wire Wire Line
	7450 2600 7500 2600
Text Label 7450 2600 1    50   ~ 0
LEVEL_I1
Text Label 7350 2600 1    50   ~ 0
POST_EQ_O1
Wire Wire Line
	7300 2600 7350 2600
Text Label 5100 2950 1    50   ~ 0
POST_EQ_I1
Wire Wire Line
	4900 2950 5000 2950
Text Label 5000 2950 1    50   ~ 0
DIST_O1
Wire Wire Line
	9950 3000 10100 3000
Text Label 9950 3000 0    50   ~ 0
JO1
Wire Wire Line
	1550 2750 1700 2750
Text Label 1550 2750 0    50   ~ 0
IN1
Wire Wire Line
	1350 2750 1500 2750
Text Label 9900 3000 2    50   ~ 0
OUT1
Text Label 1500 2750 2    50   ~ 0
JI1
Wire Wire Line
	3400 3050 3650 3050
Wire Wire Line
	3650 3050 3750 3050
Connection ~ 3650 3050
Wire Wire Line
	3650 3050 3650 3150
Wire Wire Line
	3650 3600 3650 3450
$Comp
L power:GNDREF #PWR014
U 1 1 5C38CFFA
P 3650 3600
F 0 "#PWR014" H 3650 3350 50  0001 C CNN
F 1 "GNDREF" H 3655 3427 50  0000 C CNN
F 2 "" H 3650 3600 50  0001 C CNN
F 3 "" H 3650 3600 50  0001 C CNN
	1    3650 3600
	1    0    0    -1  
$EndComp
$Comp
L Device:R R15
U 1 1 5C38CFF4
P 3650 3300
F 0 "R15" H 3720 3346 50  0000 L CNN
F 1 "R" H 3720 3255 50  0000 L CNN
F 2 "Resistor_THT:R_Axial_DIN0207_L6.3mm_D2.5mm_P10.16mm_Horizontal" V 3580 3300 50  0001 C CNN
F 3 "~" H 3650 3300 50  0001 C CNN
	1    3650 3300
	1    0    0    -1  
$EndComp
Wire Wire Line
	2900 3050 3100 3050
$Comp
L power:GND #PWR07
U 1 1 5C382505
P 10000 3200
F 0 "#PWR07" H 10000 2950 50  0001 C CNN
F 1 "GND" H 10005 3027 50  0000 C CNN
F 2 "" H 10000 3200 50  0001 C CNN
F 3 "" H 10000 3200 50  0001 C CNN
	1    10000 3200
	-1   0    0    -1  
$EndComp
Wire Wire Line
	10000 3100 10000 3200
Wire Wire Line
	10100 3100 10000 3100
$Comp
L Connector:AudioJack2_Ground_Switch J6
U 1 1 5C3824FC
P 10300 3000
F 0 "J6" H 10068 2979 50  0000 R CNN
F 1 "JACK_OUT" H 10400 2800 50  0000 R CNN
F 2 "" H 10300 3000 50  0001 C CNN
F 3 "~" H 10300 3000 50  0001 C CNN
	1    10300 3000
	-1   0    0    1   
$EndComp
$Comp
L power:GND #PWR04
U 1 1 5C3820BF
P 1450 2950
F 0 "#PWR04" H 1450 2700 50  0001 C CNN
F 1 "GND" H 1455 2777 50  0000 C CNN
F 2 "" H 1450 2950 50  0001 C CNN
F 3 "" H 1450 2950 50  0001 C CNN
	1    1450 2950
	1    0    0    -1  
$EndComp
Wire Wire Line
	1450 2650 1450 2850
Wire Wire Line
	1450 2850 1450 2950
Connection ~ 1450 2850
Wire Wire Line
	1350 2850 1450 2850
$Comp
L Connector:AudioJack2_Ground_Switch J5
U 1 1 5C379082
P 1150 2750
F 0 "J5" H 918 2729 50  0000 R CNN
F 1 "JACK_IN" H 1200 2550 50  0000 R CNN
F 2 "" H 1150 2750 50  0001 C CNN
F 3 "~" H 1150 2750 50  0001 C CNN
	1    1150 2750
	1    0    0    1   
$EndComp
Wire Wire Line
	6500 2600 6600 2600
Wire Wire Line
	2100 2750 2000 2750
Wire Wire Line
	2500 2750 2400 2750
$Comp
L Device:C C6
U 1 1 5C362CEA
P 1850 2750
F 0 "C6" H 1965 2796 50  0000 L CNN
F 1 "0.02uF" H 1965 2705 50  0000 L CNN
F 2 "" H 1888 2600 50  0001 C CNN
F 3 "~" H 1850 2750 50  0001 C CNN
	1    1850 2750
	0    1    1    0   
$EndComp
$Comp
L Device:R R6
U 1 1 5C362BDA
P 2250 2750
F 0 "R6" V 2043 2750 50  0000 C CNN
F 1 "1k" V 2134 2750 50  0000 C CNN
F 2 "Resistor_THT:R_Axial_DIN0207_L6.3mm_D2.5mm_P10.16mm_Horizontal" V 2180 2750 50  0001 C CNN
F 3 "~" H 2250 2750 50  0001 C CNN
	1    2250 2750
	0    1    1    0   
$EndComp
$Comp
L Device:C C8
U 1 1 5C352124
P 3250 3050
F 0 "C8" V 2998 3050 50  0000 C CNN
F 1 "1uF" V 3089 3050 50  0000 C CNN
F 2 "" H 3288 2900 50  0001 C CNN
F 3 "~" H 3250 3050 50  0001 C CNN
	1    3250 3050
	0    1    1    0   
$EndComp
Wire Wire Line
	2900 3050 2900 3150
Connection ~ 2900 3050
Wire Wire Line
	2900 2950 2900 3050
Wire Wire Line
	2900 3550 2900 3450
$Comp
L power:GND #PWR013
U 1 1 5C352112
P 2900 3550
F 0 "#PWR013" H 2900 3300 50  0001 C CNN
F 1 "GND" H 2905 3377 50  0000 C CNN
F 2 "" H 2900 3550 50  0001 C CNN
F 3 "" H 2900 3550 50  0001 C CNN
	1    2900 3550
	1    0    0    -1  
$EndComp
$Comp
L Device:R R14
U 1 1 5C35210B
P 2900 3300
F 0 "R14" H 2970 3346 50  0000 L CNN
F 1 "10k" H 2970 3255 50  0000 L CNN
F 2 "Resistor_THT:R_Axial_DIN0207_L6.3mm_D2.5mm_P10.16mm_Horizontal" V 2830 3300 50  0001 C CNN
F 3 "~" H 2900 3300 50  0001 C CNN
	1    2900 3300
	1    0    0    -1  
$EndComp
Wire Wire Line
	2900 2400 2900 2550
$Comp
L power:VDD #PWR02
U 1 1 5C352104
P 2900 2400
F 0 "#PWR02" H 2900 2250 50  0001 C CNN
F 1 "VDD" H 2917 2573 50  0000 C CNN
F 2 "" H 2900 2400 50  0001 C CNN
F 3 "" H 2900 2400 50  0001 C CNN
	1    2900 2400
	1    0    0    -1  
$EndComp
Wire Wire Line
	2500 3150 2500 3250
$Comp
L power:GNDREF #PWR08
U 1 1 5C3520FD
P 2500 3250
F 0 "#PWR08" H 2500 3000 50  0001 C CNN
F 1 "GNDREF" H 2505 3077 50  0000 C CNN
F 2 "" H 2500 3250 50  0001 C CNN
F 3 "" H 2500 3250 50  0001 C CNN
	1    2500 3250
	1    0    0    -1  
$EndComp
Wire Wire Line
	2500 2850 2500 2750
Connection ~ 2500 2750
Wire Wire Line
	2500 2750 2600 2750
$Comp
L Transistor_BJT:2SC1815 Q2
U 1 1 5C3520F4
P 2800 2750
F 0 "Q2" H 2991 2796 50  0000 L CNN
F 1 "2SC1815" H 2500 2950 50  0000 L CNN
F 2 "Package_TO_SOT_THT:TO-92_Inline" H 3000 2675 50  0001 L CIN
F 3 "https://media.digikey.com/pdf/Data%20Sheets/Toshiba%20PDFs/2SC1815.pdf" H 2800 2750 50  0001 L CNN
	1    2800 2750
	1    0    0    -1  
$EndComp
$Comp
L Device:R R9
U 1 1 5C3520ED
P 2500 3000
F 0 "R9" H 2570 3046 50  0000 L CNN
F 1 "510k" H 2570 2955 50  0000 L CNN
F 2 "Resistor_THT:R_Axial_DIN0207_L6.3mm_D2.5mm_P10.16mm_Horizontal" V 2430 3000 50  0001 C CNN
F 3 "~" H 2500 3000 50  0001 C CNN
	1    2500 3000
	1    0    0    -1  
$EndComp
Wire Wire Line
	9700 3500 9700 3400
$Comp
L power:GND #PWR012
U 1 1 5C34F5B3
P 9700 3500
F 0 "#PWR012" H 9700 3250 50  0001 C CNN
F 1 "GND" H 9705 3327 50  0000 C CNN
F 2 "" H 9700 3500 50  0001 C CNN
F 3 "" H 9700 3500 50  0001 C CNN
	1    9700 3500
	1    0    0    -1  
$EndComp
Wire Wire Line
	9200 3000 9300 3000
Wire Wire Line
	9700 3000 9900 3000
Wire Wire Line
	9600 3000 9700 3000
Connection ~ 9700 3000
Wire Wire Line
	9700 3000 9700 3100
$Comp
L Device:R R13
U 1 1 5C3498F1
P 9700 3250
F 0 "R13" H 9770 3296 50  0000 L CNN
F 1 "10k" H 9770 3205 50  0000 L CNN
F 2 "Resistor_THT:R_Axial_DIN0207_L6.3mm_D2.5mm_P10.16mm_Horizontal" V 9630 3250 50  0001 C CNN
F 3 "~" H 9700 3250 50  0001 C CNN
	1    9700 3250
	1    0    0    -1  
$EndComp
$Comp
L Device:C C7
U 1 1 5C349804
P 9450 3000
F 0 "C7" V 9198 3000 50  0000 C CNN
F 1 "10uF" V 9289 3000 50  0000 C CNN
F 2 "" H 9488 2850 50  0001 C CNN
F 3 "~" H 9450 3000 50  0001 C CNN
	1    9450 3000
	0    1    1    0   
$EndComp
Wire Wire Line
	8550 3000 8550 3100
Wire Wire Line
	8900 3000 8550 3000
Connection ~ 8550 3000
Wire Wire Line
	8550 2900 8550 3000
$Comp
L Device:R R10
U 1 1 5C3452B1
P 9050 3000
F 0 "R10" V 8843 3000 50  0000 C CNN
F 1 "100" V 8934 3000 50  0000 C CNN
F 2 "Resistor_THT:R_Axial_DIN0207_L6.3mm_D2.5mm_P10.16mm_Horizontal" V 8980 3000 50  0001 C CNN
F 3 "~" H 9050 3000 50  0001 C CNN
	1    9050 3000
	0    1    1    0   
$EndComp
Wire Wire Line
	8550 3500 8550 3400
$Comp
L power:GND #PWR011
U 1 1 5C343329
P 8550 3500
F 0 "#PWR011" H 8550 3250 50  0001 C CNN
F 1 "GND" H 8555 3327 50  0000 C CNN
F 2 "" H 8550 3500 50  0001 C CNN
F 3 "" H 8550 3500 50  0001 C CNN
	1    8550 3500
	1    0    0    -1  
$EndComp
$Comp
L Device:R R12
U 1 1 5C34325E
P 8550 3250
F 0 "R12" H 8620 3296 50  0000 L CNN
F 1 "10k" H 8620 3205 50  0000 L CNN
F 2 "Resistor_THT:R_Axial_DIN0207_L6.3mm_D2.5mm_P10.16mm_Horizontal" V 8480 3250 50  0001 C CNN
F 3 "~" H 8550 3250 50  0001 C CNN
	1    8550 3250
	1    0    0    -1  
$EndComp
Wire Wire Line
	8550 2350 8550 2500
$Comp
L power:VDD #PWR01
U 1 1 5C34235C
P 8550 2350
F 0 "#PWR01" H 8550 2200 50  0001 C CNN
F 1 "VDD" H 8567 2523 50  0000 C CNN
F 2 "" H 8550 2350 50  0001 C CNN
F 3 "" H 8550 2350 50  0001 C CNN
	1    8550 2350
	1    0    0    -1  
$EndComp
Wire Wire Line
	8150 3100 8150 3200
$Comp
L power:GNDREF #PWR06
U 1 1 5C340608
P 8150 3200
F 0 "#PWR06" H 8150 2950 50  0001 C CNN
F 1 "GNDREF" H 8155 3027 50  0000 C CNN
F 2 "" H 8150 3200 50  0001 C CNN
F 3 "" H 8150 3200 50  0001 C CNN
	1    8150 3200
	1    0    0    -1  
$EndComp
Wire Wire Line
	8150 2800 8150 2700
Wire Wire Line
	8150 2700 8250 2700
$Comp
L Transistor_BJT:2SC1815 Q1
U 1 1 5C33E8C3
P 8450 2700
F 0 "Q1" H 8641 2746 50  0000 L CNN
F 1 "2SC1815" H 8641 2655 50  0000 L CNN
F 2 "Package_TO_SOT_THT:TO-92_Inline" H 8650 2625 50  0001 L CIN
F 3 "https://media.digikey.com/pdf/Data%20Sheets/Toshiba%20PDFs/2SC1815.pdf" H 8450 2700 50  0001 L CNN
	1    8450 2700
	1    0    0    -1  
$EndComp
$Comp
L Device:R R8
U 1 1 5C33E7FD
P 8150 2950
F 0 "R8" H 8220 2996 50  0000 L CNN
F 1 "510k" H 8220 2905 50  0000 L CNN
F 2 "Resistor_THT:R_Axial_DIN0207_L6.3mm_D2.5mm_P10.16mm_Horizontal" V 8080 2950 50  0001 C CNN
F 3 "~" H 8150 2950 50  0001 C CNN
	1    8150 2950
	1    0    0    -1  
$EndComp
Connection ~ 8150 2700
Wire Wire Line
	7500 2700 8150 2700
Wire Wire Line
	7500 2800 7500 3000
Text Label 7500 2600 0    50   ~ 0
LEVEL_POT_T1
Text Label 7500 2700 0    50   ~ 0
LEVEL_POT_W1
Text Label 7500 2800 0    50   ~ 0
LEVEL_POT_B1
Wire Wire Line
	6900 2600 7000 2600
$Comp
L Device:R R5
U 1 1 5C3311F2
P 7150 2600
F 0 "R5" V 6943 2600 50  0000 C CNN
F 1 "1k" V 7034 2600 50  0000 C CNN
F 2 "Resistor_THT:R_Axial_DIN0207_L6.3mm_D2.5mm_P10.16mm_Horizontal" V 7080 2600 50  0001 C CNN
F 3 "~" H 7150 2600 50  0001 C CNN
	1    7150 2600
	0    1    1    0   
$EndComp
$Comp
L Device:C C5
U 1 1 5C3305EA
P 6750 2600
F 0 "C5" V 6498 2600 50  0000 C CNN
F 1 "1uF" V 6589 2600 50  0000 C CNN
F 2 "" H 6788 2450 50  0001 C CNN
F 3 "~" H 6750 2600 50  0001 C CNN
	1    6750 2600
	0    1    1    0   
$EndComp
Wire Wire Line
	6250 1850 6500 1850
Wire Wire Line
	6500 2600 6500 2250
Wire Wire Line
	6500 1850 6500 2250
Connection ~ 6500 2250
Wire Wire Line
	6500 2250 6250 2250
Connection ~ 6500 2600
Wire Wire Line
	6500 2850 6500 2600
Wire Wire Line
	6400 2850 6500 2850
$Comp
L Device:C C3
U 1 1 5C32DA18
P 4850 1450
F 0 "C3" H 4965 1496 50  0000 L CNN
F 1 "0.22uF" H 4965 1405 50  0000 L CNN
F 2 "" H 4888 1300 50  0001 C CNN
F 3 "~" H 4850 1450 50  0001 C CNN
	1    4850 1450
	1    0    0    -1  
$EndComp
$Comp
L power:GND #PWR03
U 1 1 5C32CBB3
P 4850 2550
F 0 "#PWR03" H 4850 2300 50  0001 C CNN
F 1 "GND" H 4750 2550 50  0000 C CNN
F 2 "" H 4850 2550 50  0001 C CNN
F 3 "" H 4850 2550 50  0001 C CNN
	1    4850 2550
	1    0    0    -1  
$EndComp
$Comp
L Device:R R4
U 1 1 5C32CA8C
P 4850 2300
F 0 "R4" H 4780 2254 50  0000 R CNN
F 1 "220" H 4780 2345 50  0000 R CNN
F 2 "Resistor_THT:R_Axial_DIN0207_L6.3mm_D2.5mm_P10.16mm_Horizontal" V 4780 2300 50  0001 C CNN
F 3 "~" H 4850 2300 50  0001 C CNN
	1    4850 2300
	-1   0    0    1   
$EndComp
Text Label 5400 2450 3    50   ~ 0
TONE_POT_T1
Text Label 4850 1200 1    50   ~ 0
TONE_POT_W1
Text Label 5700 2250 1    50   ~ 0
TONE_POT_B1
Wire Wire Line
	5700 1850 5950 1850
Wire Wire Line
	5700 2250 5700 1850
Wire Wire Line
	5700 2250 5950 2250
Connection ~ 5700 2250
Wire Wire Line
	5700 2750 5700 2250
Wire Wire Line
	5800 2750 5700 2750
$Comp
L Device:R R2
U 1 1 5C32A349
P 6100 1850
F 0 "R2" V 5893 1850 50  0000 C CNN
F 1 "1k" V 5984 1850 50  0000 C CNN
F 2 "Resistor_THT:R_Axial_DIN0207_L6.3mm_D2.5mm_P10.16mm_Horizontal" V 6030 1850 50  0001 C CNN
F 3 "~" H 6100 1850 50  0001 C CNN
	1    6100 1850
	0    1    1    0   
$EndComp
$Comp
L Device:C C4
U 1 1 5C32A25D
P 6100 2250
F 0 "C4" V 5848 2250 50  0000 C CNN
F 1 "Ca" V 5939 2250 50  0000 C CNN
F 2 "" H 6138 2100 50  0001 C CNN
F 3 "~" H 6100 2250 50  0001 C CNN
	1    6100 2250
	0    1    1    0   
$EndComp
$Comp
L Amplifier_Operational:RC4558 U1
U 2 1 5C329354
P 6100 2850
F 0 "U1" H 6100 2483 50  0000 C CNN
F 1 "RC4558" H 6100 2574 50  0000 C CNN
F 2 "Package_DIP:DIP-8_W7.62mm_Socket" H 6100 2850 50  0001 C CNN
F 3 "http://www.ti.com/lit/ds/symlink/rc4558.pdf" H 6100 2850 50  0001 C CNN
	2    6100 2850
	1    0    0    1   
$EndComp
Wire Wire Line
	5400 2950 5400 3050
Wire Wire Line
	5400 3500 5400 3350
$Comp
L power:GNDREF #PWR010
U 1 1 5C3289B5
P 5400 3500
F 0 "#PWR010" H 5400 3250 50  0001 C CNN
F 1 "GNDREF" H 5405 3327 50  0000 C CNN
F 2 "" H 5400 3500 50  0001 C CNN
F 3 "" H 5400 3500 50  0001 C CNN
	1    5400 3500
	1    0    0    -1  
$EndComp
$Comp
L Device:R R11
U 1 1 5C3284D8
P 5400 3200
F 0 "R11" H 5470 3246 50  0000 L CNN
F 1 "10k" H 5470 3155 50  0000 L CNN
F 2 "Resistor_THT:R_Axial_DIN0207_L6.3mm_D2.5mm_P10.16mm_Horizontal" V 5330 3200 50  0001 C CNN
F 3 "~" H 5400 3200 50  0001 C CNN
	1    5400 3200
	1    0    0    -1  
$EndComp
Wire Wire Line
	5100 3500 5100 3400
$Comp
L power:GND #PWR09
U 1 1 5C328087
P 5100 3500
F 0 "#PWR09" H 5100 3250 50  0001 C CNN
F 1 "GND" H 5105 3327 50  0000 C CNN
F 2 "" H 5100 3500 50  0001 C CNN
F 3 "" H 5100 3500 50  0001 C CNN
	1    5100 3500
	1    0    0    -1  
$EndComp
Wire Wire Line
	5100 2950 5100 3100
Text Label 3500 2600 2    50   ~ 0
DIST_BIAS
Wire Wire Line
	3250 1250 3650 1250
Wire Wire Line
	3250 1350 3250 1250
$Comp
L Device:R R3
U 1 1 5C32575A
P 3250 1900
F 0 "R3" H 3320 1946 50  0000 L CNN
F 1 "4k7" H 3320 1855 50  0000 L CNN
F 2 "Resistor_THT:R_Axial_DIN0207_L6.3mm_D2.5mm_P10.16mm_Horizontal" V 3180 1900 50  0001 C CNN
F 3 "~" H 3250 1900 50  0001 C CNN
	1    3250 1900
	1    0    0    -1  
$EndComp
$Comp
L Device:C C1
U 1 1 5C3256D8
P 3250 1500
F 0 "C1" H 3365 1546 50  0000 L CNN
F 1 "0.047uF" H 3365 1455 50  0000 L CNN
F 2 "" H 3288 1350 50  0001 C CNN
F 3 "~" H 3250 1500 50  0001 C CNN
	1    3250 1500
	1    0    0    -1  
$EndComp
Text Label 4300 1850 3    50   ~ 0
DIST_POT_O1
Text Label 4400 1850 3    50   ~ 0
DIST_POT_I1
Wire Wire Line
	4150 2400 4500 2400
Wire Wire Line
	3650 2400 3850 2400
Wire Wire Line
	3650 2850 3750 2850
Wire Wire Line
	3850 1850 3650 1850
Wire Wire Line
	4300 1850 4150 1850
Wire Wire Line
	4500 1850 4400 1850
$Comp
L Device:R R1
U 1 1 5C324F33
P 4000 1850
F 0 "R1" V 3793 1850 50  0000 C CNN
F 1 "51k" V 3884 1850 50  0000 C CNN
F 2 "Resistor_THT:R_Axial_DIN0207_L6.3mm_D2.5mm_P10.16mm_Horizontal" V 3930 1850 50  0001 C CNN
F 3 "~" H 4000 1850 50  0001 C CNN
	1    4000 1850
	0    1    1    0   
$EndComp
$Comp
L Device:C C2
U 1 1 5C324BEC
P 4000 2400
F 0 "C2" V 3748 2400 50  0000 C CNN
F 1 "51p" V 3839 2400 50  0000 C CNN
F 2 "" H 4038 2250 50  0001 C CNN
F 3 "~" H 4000 2400 50  0001 C CNN
	1    4000 2400
	0    1    1    0   
$EndComp
$Comp
L Device:R R7
U 1 1 5C324A0C
P 4750 2950
F 0 "R7" V 4543 2950 50  0000 C CNN
F 1 "1k" V 4634 2950 50  0000 C CNN
F 2 "Resistor_THT:R_Axial_DIN0207_L6.3mm_D2.5mm_P10.16mm_Horizontal" V 4680 2950 50  0001 C CNN
F 3 "~" H 4750 2950 50  0001 C CNN
	1    4750 2950
	0    1    1    0   
$EndComp
$Comp
L Amplifier_Operational:RC4558 U1
U 1 1 5C324705
P 4050 2950
F 0 "U1" H 4050 2583 50  0000 C CNN
F 1 "RC4558" H 4050 2674 50  0000 C CNN
F 2 "Package_DIP:DIP-8_W7.62mm_Socket" H 4050 2950 50  0001 C CNN
F 3 "http://www.ti.com/lit/ds/symlink/rc4558.pdf" H 4050 2950 50  0001 C CNN
	1    4050 2950
	1    0    0    1   
$EndComp
$Comp
L Device:R_POT_TRIM RV1
U 1 1 5CF3680E
P 3250 2250
F 0 "RV1" H 3500 2100 50  0000 R CNN
F 1 "10k" H 3450 2350 50  0000 R CNN
F 2 "" H 3250 2250 50  0001 C CNN
F 3 "~" H 3250 2250 50  0001 C CNN
	1    3250 2250
	1    0    0    1   
$EndComp
Wire Wire Line
	2950 7300 3350 7300
Connection ~ 2950 7300
Connection ~ 3350 7300
Wire Wire Line
	2500 6400 3350 6400
Connection ~ 2500 6400
Connection ~ 3350 6400
Wire Wire Line
	3250 1750 3250 1650
Wire Wire Line
	3250 2100 3250 2050
Wire Wire Line
	3250 2450 3250 2400
Wire Wire Line
	3250 2450 3500 2450
Wire Wire Line
	3500 2450 3500 2250
Wire Wire Line
	3500 2250 3400 2250
Wire Wire Line
	3500 2450 3500 2600
Connection ~ 3500 2450
Connection ~ 5400 2950
Wire Wire Line
	5100 2950 5400 2950
Wire Wire Line
	5400 2950 5800 2950
$Comp
L Device:R_POT_TRIM RV2
U 1 1 5D0ED295
P 4850 1900
F 0 "RV2" V 4643 1900 50  0000 C CNN
F 1 "1k" V 4734 1900 50  0000 C CNN
F 2 "" H 4850 1900 50  0001 C CNN
F 3 "~" H 4850 1900 50  0001 C CNN
	1    4850 1900
	1    0    0    -1  
$EndComp
Wire Wire Line
	4850 2150 4850 2050
Wire Wire Line
	5000 1900 5000 1700
Wire Wire Line
	5000 1700 4850 1700
Connection ~ 4850 1700
Wire Wire Line
	4850 1700 4850 1750
Wire Wire Line
	5400 2450 5400 2950
Wire Wire Line
	4850 2550 4850 2450
Wire Wire Line
	4850 1700 4850 1600
Wire Wire Line
	4850 1300 4850 1200
$Comp
L Device:R_POT RV3
U 1 1 5C3DD25F
P 6100 1350
F 0 "RV3" V 5986 1350 50  0000 C CNN
F 1 "R_POT" V 5895 1350 50  0000 C CNN
F 2 "" H 6100 1350 50  0001 C CNN
F 3 "~" H 6100 1350 50  0001 C CNN
	1    6100 1350
	0    -1   -1   0   
$EndComp
Wire Wire Line
	6500 1850 6500 1350
Wire Wire Line
	6500 1350 6250 1350
Connection ~ 6500 1850
Wire Wire Line
	6100 1200 6500 1200
Wire Wire Line
	6500 1200 6500 1350
Connection ~ 6500 1350
Wire Wire Line
	5700 1850 5700 1350
Wire Wire Line
	5700 1350 5950 1350
Connection ~ 5700 1850
Connection ~ 3650 2400
Wire Wire Line
	3650 2400 3650 2850
Connection ~ 4500 2400
Wire Wire Line
	4500 2400 4500 2950
Wire Wire Line
	3650 1250 3650 1850
Wire Wire Line
	2300 1100 2300 1450
Wire Wire Line
	2200 1450 2300 1450
Wire Wire Line
	2200 1100 2300 1100
Wire Wire Line
	1400 1450 1400 1100
Text Label 1400 1450 1    50   ~ 0
CLIP_O1
Text Label 2300 1450 1    50   ~ 0
CLIP_I1
Text Label 3450 1050 0    50   ~ 0
CLIP_O1
Text Label 4600 1050 2    50   ~ 0
CLIP_I1
$Comp
L Connector_Generic:Conn_02x03_Odd_Even J7
U 1 1 5C52D619
P 4000 1150
F 0 "J7" H 4050 1467 50  0000 C CNN
F 1 "CLIP_PATH" H 4050 1376 50  0000 C CNN
F 2 "Connector_PinHeader_2.54mm:PinHeader_2x03_P2.54mm_Vertical" H 4000 1150 50  0001 C CNN
F 3 "~" H 4000 1150 50  0001 C CNN
	1    4000 1150
	1    0    0    -1  
$EndComp
Wire Wire Line
	4500 1150 4300 1150
Wire Wire Line
	4500 1150 4500 1850
Wire Wire Line
	3650 1250 3650 1150
Wire Wire Line
	3650 1150 3800 1150
Connection ~ 3650 1250
Wire Wire Line
	4300 1050 4600 1050
Wire Wire Line
	1900 1850 1800 1850
Wire Wire Line
	1800 2200 1900 2200
$Comp
L Device:D D7
U 1 1 5C57B114
P 2050 1850
F 0 "D7" H 2050 1634 50  0000 C CNN
F 1 "D" H 2050 1725 50  0000 C CNN
F 2 "Diode_THT:D_A-405_P7.62mm_Horizontal" H 2050 1850 50  0001 C CNN
F 3 "~" H 2050 1850 50  0001 C CNN
	1    2050 1850
	-1   0    0    1   
$EndComp
$Comp
L Device:D D8
U 1 1 5C57B11A
P 2050 2200
F 0 "D8" H 2050 2416 50  0000 C CNN
F 1 "D" H 2050 2325 50  0000 C CNN
F 2 "Diode_THT:D_A-405_P7.62mm_Horizontal" H 2050 2200 50  0001 C CNN
F 3 "~" H 2050 2200 50  0001 C CNN
	1    2050 2200
	1    0    0    -1  
$EndComp
Wire Wire Line
	1500 1850 1400 1850
Wire Wire Line
	1400 2200 1500 2200
$Comp
L Device:D D5
U 1 1 5C57B122
P 1650 1850
F 0 "D5" H 1650 1634 50  0000 C CNN
F 1 "D" H 1650 1725 50  0000 C CNN
F 2 "Diode_THT:D_A-405_P7.62mm_Horizontal" H 1650 1850 50  0001 C CNN
F 3 "~" H 1650 1850 50  0001 C CNN
	1    1650 1850
	-1   0    0    1   
$EndComp
$Comp
L Device:D D6
U 1 1 5C57B128
P 1650 2200
F 0 "D6" H 1650 2416 50  0000 C CNN
F 1 "D" H 1650 2325 50  0000 C CNN
F 2 "Diode_THT:D_A-405_P7.62mm_Horizontal" H 1650 2200 50  0001 C CNN
F 3 "~" H 1650 2200 50  0001 C CNN
	1    1650 2200
	1    0    0    -1  
$EndComp
Wire Wire Line
	2300 1850 2300 2200
Wire Wire Line
	2200 2200 2300 2200
Wire Wire Line
	2200 1850 2300 1850
Wire Wire Line
	1400 2200 1400 1850
Text Label 1400 2200 1    50   ~ 0
CLIP_O2
Text Label 2300 2200 1    50   ~ 0
CLIP_I2
Wire Wire Line
	3450 1050 3800 1050
Text Label 3800 1600 1    50   ~ 0
CLIP_O2
Wire Wire Line
	3800 1600 3800 1250
Connection ~ 3650 1850
Connection ~ 4500 1850
Wire Wire Line
	3650 1850 3650 2400
Wire Wire Line
	4500 1850 4500 2400
Text Label 4300 1600 1    50   ~ 0
CLIP_I2
Wire Wire Line
	4300 1600 4300 1250
$EndSCHEMATC
